409           	-2.794833e+02 -3.269070e+03 4.402551e-02 2.803399e+01 -5.639615e+00 -9.731081e-03 0.000000e+00 0.000000e+00 0.000000e+00 1.328222e+00 6.753559e-02 -1.297803e+03 -1.067283e-02 -3.815561e-02 -1.512558e+00 0.000000e+00 0.000000e+00 0.000000e+00 -20.0 
411           	-2.487797e+02 -3.152480e+03 2.272439e+00 2.956547e+01 -5.307481e+00 -1.753457e-01 0.000000e+00 0.000000e+00 0.000000e+00 3.984300e+00 -4.383860e-01 -1.254072e+03 1.831182e-02 -5.321547e-02 -1.320115e+00 0.000000e+00 0.000000e+00 0.000000e+00 -19.0 
409           	-2.190472e+02 -3.057638e+03 -2.154487e+00 2.943747e+01 -5.204876e+00 5.316921e-02 0.000000e+00 0.000000e+00 0.000000e+00 1.431892e+00 1.323692e+00 -1.222667e+03 2.793699e-02 5.906621e-02 -1.291153e+00 0.000000e+00 0.000000e+00 0.000000e+00 -18.0 
415           	-1.954142e+02 -2.937678e+03 -2.560915e-01 3.065175e+01 -4.783358e+00 2.985302e-02 0.000000e+00 0.000000e+00 0.000000e+00 6.000920e+00 3.301093e-01 -1.177039e+03 -6.605263e-03 2.878352e-01 -1.143508e+00 0.000000e+00 0.000000e+00 0.000000e+00 -17.0 
410           	-1.655037e+02 -2.798827e+03 -7.504142e-02 3.019530e+01 -4.420211e+00 -1.119940e-03 0.000000e+00 0.000000e+00 0.000000e+00 1.146200e+00 1.432479e-01 -1.124589e+03 -1.246402e-03 3.261948e-02 -1.023197e+00 0.000000e+00 0.000000e+00 0.000000e+00 -16.0 
411           	-1.387760e+02 -2.673406e+03 -2.538293e-01 3.020705e+01 -4.168850e+00 1.890261e-03 0.000000e+00 0.000000e+00 0.000000e+00 1.644413e+00 2.218756e-01 -1.077870e+03 -6.707326e-03 -3.650412e-03 -9.425448e-01 0.000000e+00 0.000000e+00 0.000000e+00 -15.0 
411           	-1.114846e+02 -2.541704e+03 -7.393172e-01 3.066038e+01 -3.932583e+00 1.158977e-02 0.000000e+00 0.000000e+00 0.000000e+00 1.297037e+00 3.366927e-01 -1.029101e+03 3.961166e-04 3.629139e-02 -8.520935e-01 0.000000e+00 0.000000e+00 0.000000e+00 -14.0 
410           	-8.568050e+01 -2.406336e+03 -3.487586e-01 3.086085e+01 -3.561924e+00 -1.613872e-03 0.000000e+00 0.000000e+00 0.000000e+00 1.944303e+00 1.863827e-01 -9.789927e+02 5.559466e-03 -6.011395e-02 -7.165359e-01 0.000000e+00 0.000000e+00 0.000000e+00 -13.0 
410           	-6.102107e+01 -2.268964e+03 -2.823649e-01 3.112196e+01 -3.272836e+00 -1.162355e-03 0.000000e+00 0.000000e+00 0.000000e+00 1.971992e+00 2.036079e-01 -9.279343e+02 -4.071917e-03 -7.808456e-03 -6.142062e-01 0.000000e+00 0.000000e+00 0.000000e+00 -12.0 
410           	-3.670369e+01 -2.126935e+03 -6.916543e-01 3.151165e+01 -2.971895e+00 2.487948e-02 0.000000e+00 0.000000e+00 0.000000e+00 1.601652e+00 6.786534e-01 -8.747069e+02 -1.115370e-02 1.038677e-01 -5.075062e-01 0.000000e+00 0.000000e+00 0.000000e+00 -11.0 
408           	-1.252489e+01 -1.977023e+03 -5.324806e-01 3.193838e+01 -2.811805e+00 -4.823214e-02 0.000000e+00 0.000000e+00 0.000000e+00 3.905655e+00 -7.481152e-01 -8.183816e+02 -6.253248e-02 -2.226840e-01 -4.486314e-01 0.000000e+00 0.000000e+00 0.000000e+00 -10.0 
405           	8.440022e+00 -1.833546e+03 -1.465568e+00 3.265397e+01 -2.500619e+00 1.128943e-02 0.000000e+00 0.000000e+00 0.000000e+00 1.722458e+00 1.608932e+00 -7.649764e+02 6.351355e-02 5.709086e-01 -3.244611e-01 0.000000e+00 0.000000e+00 0.000000e+00 -9.0 
405           	2.609336e+01 -1.683018e+03 -6.168756e-02 3.179950e+01 -2.131905e+00 -9.031482e-04 0.000000e+00 0.000000e+00 0.000000e+00 2.062748e+00 4.539768e-02 -7.088358e+02 1.140819e-03 -6.699635e-03 -2.035525e-01 0.000000e+00 0.000000e+00 0.000000e+00 -8.0 
423           	4.270310e+01 -1.534393e+03 -3.341259e-01 3.192440e+01 -1.862700e+00 -5.176106e-03 0.000000e+00 0.000000e+00 0.000000e+00 2.245686e+00 2.574092e-01 -6.530835e+02 -2.731835e-03 -4.150481e-02 -1.140535e-01 0.000000e+00 0.000000e+00 0.000000e+00 -7.0 
433           	5.830052e+01 -1.380621e+03 -3.830307e-01 3.202933e+01 -1.584125e+00 -4.037827e-03 0.000000e+00 0.000000e+00 0.000000e+00 2.181190e+00 2.985850e-01 -5.952322e+02 -7.716356e-04 2.609234e-02 -7.676421e-03 0.000000e+00 0.000000e+00 0.000000e+00 -6.0 
444           	7.207941e+01 -1.225696e+03 -3.733920e-01 3.215730e+01 -1.327649e+00 -1.508558e-03 0.000000e+00 0.000000e+00 0.000000e+00 2.274065e+00 2.974572e-01 -5.368649e+02 -5.951336e-05 -4.126430e-02 7.291609e-02 0.000000e+00 0.000000e+00 0.000000e+00 -5.0 
476           	8.269939e+01 -1.071778e+03 -2.801146e-02 3.201033e+01 -1.077314e+00 5.027258e-03 0.000000e+00 0.000000e+00 0.000000e+00 2.456019e+00 2.796197e-01 -4.790068e+02 3.558717e-03 1.492245e-02 1.601232e-01 0.000000e+00 0.000000e+00 0.000000e+00 -4.0 
387           	9.872239e+01 -8.941695e+02 -8.265718e-01 3.251492e+01 -8.066629e-01 1.095125e-01 0.000000e+00 0.000000e+00 0.000000e+00 1.897540e+00 7.910771e-01 -4.111947e+02 1.399096e-02 4.570468e-02 2.547112e-01 0.000000e+00 0.000000e+00 0.000000e+00 -3.0 
999           	1.439034e+02 -6.617181e+02 -6.612888e+01 3.667099e+01 -1.407574e+00 -2.701430e+00 0.000000e+00 0.000000e+00 0.000000e+00 6.047127e+01 5.483783e+01 -3.362349e+02 4.929411e-01 3.962249e+00 1.087999e-02 0.000000e+00 0.000000e+00 0.000000e+00 -2.0 
471           	1.103786e+02 -5.867390e+02 -5.388116e-01 3.219128e+01 -2.942682e-01 -1.008198e-02 0.000000e+00 0.000000e+00 0.000000e+00 2.448693e+00 5.069194e-01 -2.953881e+02 1.715252e-03 -3.024505e-02 4.141379e-01 0.000000e+00 0.000000e+00 0.000000e+00 -1.0 
999           	1.347863e+02 -1.085221e+02 -9.773622e+00 3.930851e+01 8.196580e-02 3.584403e-01 0.000000e+00 0.000000e+00 0.000000e+00 -1.367199e+01 1.873879e+01 -1.060100e+02 3.018009e-01 2.122326e+00 5.967247e-01 0.000000e+00 0.000000e+00 0.000000e+00 0.0 
448           	1.194485e+02 -2.579772e+02 -9.197821e-01 3.222819e+01 2.897829e-01 2.632261e-02 0.000000e+00 0.000000e+00 0.000000e+00 2.500405e+00 7.750795e-01 -1.701641e+02 -1.706549e-04 3.781238e-02 6.010009e-01 0.000000e+00 0.000000e+00 0.000000e+00 1.0 
472           	1.194121e+02 -9.721240e+01 -8.908527e-01 3.191601e+01 5.243731e-01 3.537664e-03 0.000000e+00 0.000000e+00 0.000000e+00 2.369245e+00 8.514284e-01 -1.091227e+02 -1.515529e-03 -2.223459e-02 6.798596e-01 0.000000e+00 0.000000e+00 0.000000e+00 2.0 
425           	1.211708e+02 6.856461e+01 -6.935091e-01 3.216533e+01 7.669749e-01 3.442004e-03 0.000000e+00 0.000000e+00 0.000000e+00 2.348337e+00 7.595054e-01 -4.567611e+01 2.019695e-03 2.033855e-02 7.633763e-01 0.000000e+00 0.000000e+00 0.000000e+00 3.0 
445           	1.174844e+02 2.285643e+02 -8.226339e-01 3.173835e+01 1.059680e+00 1.176018e-02 0.000000e+00 0.000000e+00 0.000000e+00 2.428686e+00 8.711293e-01 1.528786e+01 -1.079664e-03 -8.597172e-03 8.479194e-01 0.000000e+00 0.000000e+00 0.000000e+00 4.0 
343           	1.205537e+02 3.954884e+02 3.624447e-01 3.198544e+01 1.260719e+00 -2.072206e-02 0.000000e+00 0.000000e+00 0.000000e+00 3.542031e+00 1.876311e-01 8.017699e+01 -1.733784e-02 -1.549518e-02 9.249654e-01 0.000000e+00 0.000000e+00 0.000000e+00 5.0 
282           	1.172457e+02 5.554554e+02 -7.931187e-01 3.223425e+01 1.412658e+00 -8.651685e-02 0.000000e+00 0.000000e+00 0.000000e+00 5.375079e+00 1.191664e+00 1.418140e+02 -2.558438e-03 4.365048e-02 1.002867e+00 0.000000e+00 0.000000e+00 0.000000e+00 6.0 
741           	1.052661e+02 7.502340e+02 -1.329580e-03 3.543758e+01 1.485948e+00 -4.096682e-02 0.000000e+00 0.000000e+00 0.000000e+00 6.615472e+00 -5.787078e-02 2.192811e+02 4.755040e-02 -2.866579e-01 1.061813e+00 0.000000e+00 0.000000e+00 0.000000e+00 7.0 
280           	1.043951e+02 8.652994e+02 -2.120630e+00 3.220380e+01 1.913316e+00 -3.778995e-02 0.000000e+00 0.000000e+00 0.000000e+00 2.439627e+00 1.646920e+00 2.602913e+02 4.233231e-02 4.869142e-02 1.118099e+00 0.000000e+00 0.000000e+00 0.000000e+00 8.0 
953           	1.050884e+02 9.970287e+02 -2.533137e+01 3.724896e+01 1.758463e+00 1.596012e+00 0.000000e+00 0.000000e+00 0.000000e+00 -1.000008e+00 1.701729e+01 3.071199e+02 2.045045e-01 1.105398e+00 1.213389e+00 0.000000e+00 0.000000e+00 0.000000e+00 9.0 
304           	7.922556e+01 1.165188e+03 -9.934891e-01 3.079648e+01 2.557475e+00 1.110242e-02 0.000000e+00 0.000000e+00 0.000000e+00 2.425530e+00 1.037169e+00 3.763782e+02 -6.639539e-04 -1.384374e-02 1.357447e+00 0.000000e+00 0.000000e+00 0.000000e+00 10.0 
318           	6.435749e+01 1.333928e+03 -4.267482e-01 3.060273e+01 2.822634e+00 -1.611768e-03 0.000000e+00 0.000000e+00 0.000000e+00 -1.313222e+00 3.459920e-01 4.434109e+02 -7.334915e-03 1.367651e-01 1.427469e+00 0.000000e+00 0.000000e+00 0.000000e+00 11.0 
304           	5.349276e+01 1.462074e+03 -6.969339e-01 2.993657e+01 3.018186e+00 1.746198e-02 0.000000e+00 0.000000e+00 0.000000e+00 2.585568e+00 8.866107e-01 4.915093e+02 -4.196554e-03 -1.944191e-02 1.479303e+00 0.000000e+00 0.000000e+00 0.000000e+00 12.0 
316           	3.847914e+01 1.609323e+03 -7.764468e-01 3.024569e+01 3.217431e+00 7.339063e-02 0.000000e+00 0.000000e+00 0.000000e+00 2.431058e+00 8.764233e-01 5.487723e+02 3.292921e-03 8.868748e-02 1.550210e+00 0.000000e+00 0.000000e+00 0.000000e+00 13.0 
315           	2.377101e+01 1.758969e+03 -5.787303e-01 2.995394e+01 3.619931e+00 -1.965149e-02 0.000000e+00 0.000000e+00 0.000000e+00 2.052893e+00 -9.005835e-02 6.072480e+02 8.472764e-02 -2.019516e-01 1.709789e+00 0.000000e+00 0.000000e+00 0.000000e+00 14.0 
314           	7.313831e+00 1.894058e+03 -3.616777e-01 2.868201e+01 3.762799e+00 2.727591e-03 0.000000e+00 0.000000e+00 0.000000e+00 2.322379e+00 5.573707e-01 6.603285e+02 -9.087241e-04 -6.460454e-02 1.717437e+00 0.000000e+00 0.000000e+00 0.000000e+00 15.0 
313           	-8.696584e+00 2.033112e+03 -1.984395e-01 2.861630e+01 3.948174e+00 -3.348425e-02 0.000000e+00 0.000000e+00 0.000000e+00 2.329017e+00 3.660500e-01 7.150202e+02 -1.894569e-02 -1.797324e-01 1.785494e+00 0.000000e+00 0.000000e+00 0.000000e+00 16.0 
317           	-2.589034e+01 2.172701e+03 -4.362143e-01 2.785128e+01 4.304361e+00 -2.007740e-03 0.000000e+00 0.000000e+00 0.000000e+00 1.776280e+00 1.000733e+00 7.709280e+02 -2.618366e-02 9.026877e-02 1.918903e+00 0.000000e+00 0.000000e+00 0.000000e+00 17.0 
315           	-4.331797e+01 2.304391e+03 -1.975189e-01 2.704642e+01 4.424963e+00 3.991136e-02 0.000000e+00 0.000000e+00 0.000000e+00 2.291650e+00 2.804688e-01 8.232653e+02 -8.558966e-03 3.474412e-02 1.914470e+00 0.000000e+00 0.000000e+00 0.000000e+00 18.0 
313           	-5.960712e+01 2.434957e+03 -3.208400e-01 2.625912e+01 4.632982e+00 7.488161e-03 0.000000e+00 0.000000e+00 0.000000e+00 2.501268e+00 4.285378e-01 8.758777e+02 -9.046438e-03 1.694156e-02 1.977079e+00 0.000000e+00 0.000000e+00 0.000000e+00 19.0 
931           	-1.403302e+02 2.851807e+03 4.739242e+00 7.693500e+01 -4.090253e+00 2.014962e+01 0.000000e+00 0.000000e+00 0.000000e+00 -2.024388e+01 -6.380080e+00 9.724032e+02 8.424878e-01 -4.600432e+00 -4.359989e+00 0.000000e+00 0.000000e+00 0.000000e+00 20.0 
